我需要同时展示图片和视频，且视频会自动播放，以及瀑布流不变
响应：

{
    "code": 0,
    "result": {
        "list": [
            {
                "id": 1,
                "type": 1,
                "category": 1,
                "title": "测试数据",
                "content": "测试数据",
                "publishTime": "2026-01-18T12:58:24.867Z",
                "likedCount": 0,
                "commentCount": 0,
                "viewCount": 0,
                "aspectRatio": 1,
                "publisher": {
                    "userId": 5,
                    "username": "admin",
                    "avatar": "https://ps.ssl.qhimg.com/t02d04fd71b9c5570b0.jpg?t=1768441180845",
                    "nickname": null
                },
                "imageUrls": [
                    "https://img2.baidu.com/it/u=3937133243",
                    "3069247915&fm=253&fmt=auto&app=138&f=JPEG?w=500&h=671",
                    "https://img0.baidu.com/it/u=80072601",
                    "3900908929&fm=253&fmt=auto&app=120&f=JPEG?w=500&h=666"
                ],
                "cover": "https://img2.baidu.com/it/u=3937133243"
            },
            {
                "id": 6,
                "type": 1,
                "category": 2,
                "title": "宠物日常",
                "content": "我家小可爱的日常生活，萌化你的心",
                "publishTime": "2026-01-17T18:05:19.877Z",
                "likedCount": 29,
                "commentCount": 0,
                "viewCount": 2810,
                "aspectRatio": 1,
                "publisher": {
                    "userId": 28,
                    "username": "匿名用户",
                    "avatar": "",
                    "nickname": ""
                },
                "imageUrls": [
                    "https://images.unsplash.com/photo-1587300003388-59208cc962cb?w=800",
                    "https://images.unsplash.com/photo-1583511655857-d19b40a7a54e?w=800"
                ],
                "cover": "https://images.unsplash.com/photo-1587300003388-59208cc962cb?w=800"
            },
            {
                "id": 19,
                "type": 2,
                "category": 3,
                "title": "舞蹈表演",
                "content": "精彩的舞蹈演出",
                "publishTime": "2026-01-17T01:02:19.877Z",
                "likedCount": 439,
                "commentCount": 0,
                "viewCount": 3055,
                "aspectRatio": 1,
                "publisher": {
                    "userId": 5,
                    "username": "admin",
                    "avatar": "https://ps.ssl.qhimg.com/t02d04fd71b9c5570b0.jpg?t=1768441180845",
                    "nickname": null
                },
                "videoUrl": "https://media.w3.org/2010/05/bunny/movie.mp4"
            },
            {
                "id": 12,
                "type": 2,
                "category": 1,
                "title": "自然风光纪录片",
                "content": "探索大自然的神奇魅力",
                "publishTime": "2026-01-15T12:47:19.877Z",
                "likedCount": 317,
                "commentCount": 0,
                "viewCount": 2416,
                "aspectRatio": 1,
                "publisher": {
                    "userId": 5,
                    "username": "admin",
                    "avatar": "https://ps.ssl.qhimg.com/t02d04fd71b9c5570b0.jpg?t=1768441180845",
                    "nickname": null
                },
                "videoUrl": "https://www.w3schools.com/html/mov_bbb.mp4"
            },
            {
                "id": 13,
                "type": 2,
                "category": 2,
                "title": "美食制作教程",
                "content": "教你制作美味佳肴",
                "publishTime": "2026-01-14T17:21:19.877Z",
                "likedCount": 210,
                "commentCount": 0,
                "viewCount": 720,
                "aspectRatio": 1,
                "publisher": {
                    "userId": 5,
                    "username": "admin",
                    "avatar": "https://ps.ssl.qhimg.com/t02d04fd71b9c5570b0.jpg?t=1768441180845",
                    "nickname": null
                },
                "videoUrl": "https://media.w3.org/2010/05/sintel/trailer.mp4"
            },
            {
                "id": 10,
                "type": 1,
                "category": 3,
                "title": "街头摄影",
                "content": "城市街头的精彩瞬间",
                "publishTime": "2026-01-14T01:38:19.877Z",
                "likedCount": 211,
                "commentCount": 0,
                "viewCount": 2886,
                "aspectRatio": 1,
                "publisher": {
                    "userId": 28,
                    "username": "匿名用户",
                    "avatar": "",
                    "nickname": ""
                },
                "imageUrls": [
                    "https://images.unsplash.com/photo-1449824913935-59a10b8d2000?w=800",
                    "https://images.unsplash.com/photo-1480796927426-f609979314bd?w=800"
                ],
                "cover": "https://images.unsplash.com/photo-1449824913935-59a10b8d2000?w=800"
            },
            {
                "id": 17,
                "type": 2,
                "category": 1,
                "title": "技术教程",
                "content": "分享技术知识和经验",
                "publishTime": "2026-01-12T21:34:19.877Z",
                "likedCount": 334,
                "commentCount": 0,
                "viewCount": 355,
                "aspectRatio": 1,
                "publisher": {
                    "userId": 27,
                    "username": "fanfa",
                    "avatar": "",
                    "nickname": ""
                },
                "videoUrl": "https://www.w3schools.com/html/mov_bbb.mp4"
            },
            {
                "id": 9,
                "type": 1,
                "category": 2,
                "title": "自然奇观",
                "content": "大自然的奇妙景观，令人震撼",
                "publishTime": "2026-01-09T08:17:19.877Z",
                "likedCount": 168,
                "commentCount": 0,
                "viewCount": 3121,
                "aspectRatio": 1,
                "publisher": {
                    "userId": 27,
                    "username": "fanfa",
                    "avatar": "",
                    "nickname": ""
                },
                "imageUrls": [
                    "https://images.unsplash.com/photo-1470071459604-3b5ec3a7fe05?w=800",
                    "https://images.unsplash.com/photo-1469474968028-56623f02e42e?w=800"
                ],
                "cover": "https://images.unsplash.com/photo-1470071459604-3b5ec3a7fe05?w=800"
            },
            {
                "id": 20,
                "type": 2,
                "category": 2,
                "title": "游戏解说",
                "content": "有趣的游戏视频分享",
                "publishTime": "2026-01-08T15:50:19.877Z",
                "likedCount": 116,
                "commentCount": 0,
                "viewCount": 2877,
                "aspectRatio": 1,
                "publisher": {
                    "userId": 7,
                    "username": "fanfan",
                    "avatar": "https://ps.ssl.qhimg.com/t0260a0b67191b93939.jpg?t=1768529902519",
                    "nickname": null
                },
                "videoUrl": "https://www.w3schools.com/html/mov_bbb.mp4"
            },
            {
                "id": 7,
                "type": 1,
                "category": 1,
                "title": "日落美景",
                "content": "傍晚的日落，温暖而治愈",
                "publishTime": "2026-01-07T17:51:19.877Z",
                "likedCount": 127,
                "commentCount": 0,
                "viewCount": 980,
                "aspectRatio": 1,
                "publisher": {
                    "userId": 27,
                    "username": "fanfa",
                    "avatar": "",
                    "nickname": ""
                },
                "imageUrls": [
                    "https://images.unsplash.com/photo-1507525428034-b723cf961d3e?w=800",
                    "https://images.unsplash.com/photo-1495616811223-4d98c6e9c869?w=800"
                ],
                "cover": "https://images.unsplash.com/photo-1507525428034-b723cf961d3e?w=800"
            },
            {
                "id": 14,
                "type": 2,
                "category": 2,
                "title": "旅行vlog",
                "content": "记录旅行中的美好时光",
                "publishTime": "2026-01-03T20:32:19.877Z",
                "likedCount": 389,
                "commentCount": 0,
                "viewCount": 4002,
                "aspectRatio": 1,
                "publisher": {
                    "userId": 7,
                    "username": "fanfan",
                    "avatar": "https://ps.ssl.qhimg.com/t0260a0b67191b93939.jpg?t=1768529902519",
                    "nickname": null
                },
                "videoUrl": "https://www.w3schools.com/html/mov_bbb.mp4"
            },
            {
                "id": 2,
                "type": 1,
                "category": 1,
                "title": "美丽风景摄影",
                "content": "今天拍到了非常美丽的风景，大自然的鬼斧神工令人叹为观止",
                "publishTime": "2025-12-30T00:21:19.877Z",
                "likedCount": 168,
                "commentCount": 0,
                "viewCount": 4518,
                "aspectRatio": 1,
                "publisher": {
                    "userId": 5,
                    "username": "admin",
                    "avatar": "https://ps.ssl.qhimg.com/t02d04fd71b9c5570b0.jpg?t=1768441180845",
                    "nickname": null
                },
                "imageUrls": [
                    "https://images.unsplash.com/photo-1472214103451-9374bd1c798e?w=800",
                    "https://images.unsplash.com/photo-1441974231531-c6227db76b6e?w=800"
                ],
                "cover": "https://images.unsplash.com/photo-1472214103451-9374bd1c798e?w=800"
            }
        ],
        "totalPage": 2,
        "total": 21,
        "page": 1,
        "limit": 12,
        "filterCategory": 0,
        "filterType": 0,
        "links": {
            "first": "http://localhost:3000/fanfan-time-message/getMediaList?limit=12",
            "previous": "",
            "next": "http://localhost:3000/fanfan-time-message/getMediaList?page=2&limit=12",
            "last": "http://localhost:3000/fanfan-time-message/getMediaList?page=2&limit=12"
        }
    },
    "message": "获取成功"
}
